Tue Mar 01 08:02:47 2016    500-1000_single_process.profile

         38024876 function calls in 43.631 seconds

   Ordered by: internal time

   ncalls  tottime  percall  cumtime  percall filename:lineno(function)
   500000    7.877    0.000    7.877    0.000 {lxml.etree.fromstring}
      500    3.035    0.006    5.122    0.010 C:\Python27\lib\zipfile.py:827(_RealGetContents)
   500000    2.970    0.000    9.672    0.000 C:\Python27\lib\zipfile.py:961(open)
  1000000    2.917    0.000    6.236    0.000 C:\Python27\lib\zipfile.py:668(read1)
     1000    2.478    0.002    2.478    0.002 {method 'writerows' of '_csv.writer' objects}
      500    2.338    0.005   40.871    0.082 C:/Users/dorlyakov/PycharmProjects/playtix_test/runme.py:58(parse_zip)
  1500500    2.209    0.000    2.209    0.000 {method 'tell' of '_io.BufferedReader' objects}
   500000    1.974    0.000   11.671    0.000 C:/Users/dorlyakov/PycharmProjects/playtix_test/runme.py:48(parse_xml)
  1500000    1.915    0.000    5.379    0.000 C:\Python27\lib\zipfile.py:507(read)
   500000    1.721    0.000    1.991    0.000 C:\Python27\lib\zipfile.py:534(__init__)
   500000    1.456    0.000   20.180    0.000 C:\Python27\lib\zipfile.py:957(read)
  3249934    1.201    0.000    1.201    0.000 {method 'get' of 'lxml.etree._Element' objects}
   500000    0.926    0.000    1.085    0.000 C:\Python27\lib\zipfile.py:287(__init__)
   500000    0.827    0.000    1.290    0.000 {method 'extend' of 'list' objects}
   500000    0.814    0.000    1.994    0.000 C:\Python27\lib\zipfile.py:720(close)
   500000    0.766    0.000    7.058    0.000 C:\Python27\lib\zipfile.py:640(read)
  1501500    0.670    0.000    0.670    0.000 {method 'read' of '_io.BufferedReader' objects}
  1502000    0.635    0.000    0.635    0.000 {method 'seek' of '_io.BufferedReader' objects}
   500000    0.619    0.000    0.619    0.000 {method 'getchildren' of 'lxml.etree._Element' objects}
   500000    0.586    0.000    0.964    0.000 C:\Python27\lib\zipfile.py:658(_update_crc)
   500000    0.579    0.000    0.579    0.000 {function close at 0x01F3DFB0}
  1000000    0.555    0.000    0.555    0.000 {zlib.crc32}
  7002000    0.472    0.000    0.472    0.000 {len}
  2749934    0.463    0.000    0.463    0.000 C:/Users/dorlyakov/PycharmProjects/playtix_test/runme.py:70(<genexpr>)
  1002000    0.435    0.000    0.435    0.000 {_struct.unpack}
   500000    0.323    0.000    0.600    0.000 C:\Python27\lib\zipfile.py:513(close)
  2000000    0.303    0.000    0.303    0.000 {method 'read' of 'cStringIO.StringI' objects}
   500500    0.278    0.000    0.291    0.000 C:\Python27\lib\zipfile.py:1388(_fpclose)
   500000    0.252    0.000    0.351    0.000 C:\Python27\lib\zipfile.py:928(getinfo)
   500000    0.246    0.000    0.246    0.000 {max}
   500500    0.223    0.000    0.223    0.000 {isinstance}
        1    0.222    0.222   43.630   43.630 C:/Users/dorlyakov/PycharmProjects/playtix_test/runme.py:74(parse_zip_folder)
   500000    0.213    0.000    0.243    0.000 C:\Python27\lib\zipfile.py:383(_decodeExtra)
   500000    0.188    0.000    0.188    0.000 C:\Python27\lib\zipfile.py:502(__init__)
  1502000    0.146    0.000    0.146    0.000 {method 'append' of 'list' objects}
   500000    0.117    0.000    0.117    0.000 C:\Python27\lib\zipfile.py:377(_decodeFilename)
   500000    0.099    0.000    0.099    0.000 {method 'get' of 'dict' objects}
   500000    0.099    0.000    0.099    0.000 {method 'find' of 'str' objects}
      500    0.096    0.000    0.122    0.000 C:\Python27\lib\zipfile.py:896(namelist)
   500500    0.094    0.000    0.094    0.000 {hasattr}
   500000    0.087    0.000    0.087    0.000 {min}
   500000    0.060    0.000    0.060    0.000 {chr}
      500    0.057    0.000    0.057    0.000 {_io.open}
      502    0.029    0.000    0.029    0.000 {open}
      500    0.013    0.000    0.013    0.000 {method 'close' of '_io.BufferedReader' objects}
     1000    0.011    0.000    0.011    0.000 {method 'read' of 'file' objects}
     1000    0.008    0.000    0.064    0.000 C:\Python27\lib\zipfile.py:201(_EndRecData)
     1500    0.006    0.000    0.006    0.000 {method 'seek' of 'file' objects}
      500    0.006    0.000    5.186    0.010 C:\Python27\lib\zipfile.py:745(__init__)
      500    0.005    0.000    0.052    0.000 C:\Python27\lib\zipfile.py:142(is_zipfile)
      500    0.003    0.000    0.017    0.000 C:\Python27\lib\zipfile.py:824(__exit__)
     1000    0.002    0.000    0.011    0.000 C:\Python27\lib\zipfile.py:158(_EndRecData64)
        1    0.001    0.001    0.001    0.001 {nt.listdir}
     1000    0.001    0.000    0.015    0.000 C:\Python27\lib\zipfile.py:1278(close)
      500    0.001    0.000    0.001    0.000 {cStringIO.StringIO}
      500    0.001    0.000    0.001    0.000 {method 'tell' of 'file' objects}
      500    0.001    0.000    0.023    0.000 C:\Python27\lib\zipfile.py:134(_check_zipfile)
      500    0.000    0.000    0.001    0.000 C:\Python27\lib\zipfile.py:1274(__del__)
        1    0.000    0.000   43.631   43.631 <string>:1(<module>)
      500    0.000    0.000    0.000    0.000 C:\Python27\lib\zipfile.py:821(__enter__)
        2    0.000    0.000    0.000    0.000 {_csv.writer}
        1    0.000    0.000    0.000    0.000 {method 'disable' of '_lsprof.Profiler' objects}


<pstats.Stats instance at 0x025C8FD0>